<?xml version="1.0" standalone="no"?>
<!DOCTYPE svg PUBLIC "-//W3C//DTD SVG 1.1//EN" "http://www.w3.org/Graphics/SVG/1.1/DTD/svg11.dtd" >
<svg xmlns="http://www.w3.org/2000/svg">
<metadata>
This is a custom SVG font generated by IcoMoon.
<iconset grid="16"></iconset>
</metadata>
<defs>
<font id="icomoon" horiz-adv-x="512" >
<font-face units-per-em="512" ascent="480" descent="-32" />
<missing-glyph horiz-adv-x="512" />
<glyph unicode="&#xe000;" d="M 464.00,416.00L 48.00,416.00 C 21.60,416.00,0.00,394.40,0.00,368.00l0.00-320.00 c0.00-26.40, 21.60-48.00, 48.00-48.00l 416.00,0.00 c 26.40,0.00, 48.00,21.60, 48.00,48.00L 512.00,368.00 C 512.00,394.40, 490.40,416.00, 464.00,416.00z
	 M 199.37,204.814L 64.00,99.368L 64.00,350.189 L 199.37,204.814z M 88.19,352.00L 423.81,352.00 L 256.00,226.00L 88.19,352.00z M 204.644,199.151L 256.00,144.00l 51.355,55.151
	L 412.632,64.00L 99.368,64.00 L 204.644,199.151z M 312.63,204.814L 448.00,350.189l0.00-250.821 L 312.63,204.814z"  />
<glyph unicode="&#xe002;" d="M 480.00,352.00L 352.00,352.00 L 352.00,384.00 c0.00,17.60-14.40,32.00-32.00,32.00L 192.00,416.00 c-17.602,0.00-32.00-14.40-32.00-32.00l0.00-32.00 L 32.00,352.00 c-17.60,0.00-32.00-14.40-32.00-32.00l0.00-288.00 
	c0.00-17.601, 14.398-32.00, 32.00-32.00l 448.00,0.00 c 17.60,0.00, 32.00,14.399, 32.00,32.00L 512.00,320.00 C 512.00,337.60, 497.60,352.00, 480.00,352.00z M 192.00,383.942
	c 0.017,0.02, 0.037,0.041, 0.057,0.058l 127.886,0.00 c 0.021-0.017, 0.041-0.038, 0.059-0.058L 320.002,352.00 L 192.00,352.00 L 192.00,383.942 z M 480.00,224.00l-64.00,0.00 l0.00-48.00 
	c0.00-8.801-7.20-16.00-16.00-16.00l-32.00,0.00 c-8.802,0.00-16.00,7.199-16.00,16.00l0.00,48.00 L 160.00,224.00 l0.00-48.00 c0.00-8.801-7.20-16.00-16.00-16.00l-32.00,0.00 c-8.801,0.00-16.00,7.199-16.00,16.00l0.00,48.00 L 32.00,224.00 l0.00,32.00 l 448.00,0.00 
	L 480.00,224.00 z"  />
<glyph unicode="&#xe001;" d="M 512.00,64.00L 512.00,448.00 L0.00,448.00 l0.00-384.00 l 224.00,0.00 l0.00-32.00 l-96.00,0.00 l0.00-32.00 l 256.00,0.00 l0.00,32.00 l-96.00,0.00 l0.00,32.00 L 512.00,64.00 z M 64.00,384.00l 384.00,0.00 l0.00-256.00 L 64.00,128.00 L 64.00,384.00 z"  />
<glyph unicode="&#xe003;" d="M 426.672,480.00L 85.342,480.00 C 38.406,480.00,0.00,441.593,0.00,394.656l0.00-341.313 C0.00,6.374, 38.406-32.00, 85.342-32.00l 341.33,0.001
	c 46.938,0.00, 85.328,38.373, 85.328,85.344L 512.00,394.656 C 512.00,441.593, 473.609,480.00, 426.672,480.00z M 435.296,224.00L 352.00,224.00 l0.00-224.00 l-96.00,0.00 L 256.00,224.00 l-46.263,0.00 l0.00,73.282 L 256.00,297.282 
	l0.00,47.593 C 256.00,409.546, 283.896,448.00, 359.935,448.00l 87.622,0.00 l0.00-79.285 l-71.565,0.00 c-21.241,0.035-23.876-11.076-23.876-31.756L 352.00,297.282l 96.00,0.00 
	L 435.296,224.00z"  />
<glyph unicode="&#xe004;" d="M 426.69,480.00L 85.344,480.00 C 38.405,480.00, 0.001,441.593, 0.001,394.657l0.00-341.313 C 0.001,6.375, 38.405-32.00, 85.344-32.00L 426.69-32.00 
	C 473.625-32.00, 512.00,6.375, 512.00,53.344L 512.00,394.658 C 511.996,441.593, 473.621,480.00, 426.69,480.00z M 365.858,67.656
	c-15.076-7.094-28.764-12.094-41.00-14.969c-12.248-2.845-25.48-4.279-39.701-4.279c-16.156,0.00-25.688,2.029-38.094,6.094
	c-12.404,4.094-23.00,9.936-31.75,17.436c-8.779,7.564-14.843,15.599-18.233,24.097c-3.392,8.502-5.078,20.846-5.078,37.002L 192.002,256.938 
	l-47.998,0.00 l0.00,50.033 c 13.872,4.50, 29.968,10.967, 39.842,19.375c 9.92,8.436, 17.859,18.529, 23.842,30.342
	c 6.002,11.783, 10.125,26.813, 12.376,45.033l 50.25,0.00 L 270.314,320.00 L 352.00,320.00 l0.00-63.063 l-81.689,0.00 l0.00-90.594 c0.00-20.50-0.264-32.313, 1.908-38.125
	c 2.156-5.78, 7.563-11.78, 13.451-15.25c 7.828-4.688, 16.752-7.03, 26.813-7.03c 17.893,0.00, 35.689,5.813, 53.375,17.438L 365.858,67.656 
	L 365.858,67.656z"  />
<glyph unicode="&#xe005;" d="M 160.00,384.00A96.00,96.00 10980.00 1 1 352.00,384A96.00,96.00 10980.00 1 1 160.00,384zM 384.039,256.00l-0.078,0.00 l-17.634,0.00 l-99.552-202.122L 304.00,240.00l-48.00,48.00l-48.00-48.00l 37.225-186.122L 145.674,256.00l-17.635,0.00 l-0.077,0.00 
		C 64.00,256.00, 64.00,213.007, 64.00,160.00l0.00-160.00 l 384.00,0.00 L 448.00,160.00 C 448.00,213.007, 448.00,256.00, 384.039,256.00z"  />
<glyph unicode="&#x20;" horiz-adv-x="256" />
<glyph class="hidden" unicode="&#xf000;" d="M0,480L 512 -32L0 -32 z" horiz-adv-x="0" />
</font></defs></svg>