<?xml version="1.0" standalone="no"?>
<!DOCTYPE svg PUBLIC "-//W3C//DTD SVG 1.1//EN" "http://www.w3.org/Graphics/SVG/1.1/DTD/svg11.dtd" >
<svg xmlns="http://www.w3.org/2000/svg">
<metadata>
This is a custom SVG font generated by IcoMoon.
<iconset grid="16"></iconset>
</metadata>
<defs>
<font id="icomoon" horiz-adv-x="512" >
<font-face units-per-em="512" ascent="480" descent="-32" />
<missing-glyph horiz-adv-x="512" />
<glyph class="hidden" unicode="&#xf000;" d="M0,480L 512 -32L0 -32 z" horiz-adv-x="0" />
<glyph unicode="&#xe000;" d="M 464,416L 48,416 C 21.6,416,0,394.4,0,368l0-320 c0-26.4, 21.6-48, 48-48l 416,0 c 26.4,0, 48,21.6, 48,48L 512,368 C 512,394.4, 490.4,416, 464,416z
	 M 199.37,204.814L 64,99.368L 64,350.189 L 199.37,204.814z M 88.19,352L 423.81,352 L 256,226L 88.19,352z M 204.644,199.151L 256,144l 51.355,55.151
	L 412.632,64L 99.368,64 L 204.644,199.151z M 312.63,204.814L 448,350.189l0-250.821 L 312.63,204.814z"  />
<glyph unicode="&#xe002;" d="M 480,352L 352,352 L 352,384 c0,17.6-14.4,32-32,32L 192,416 c-17.602,0-32-14.4-32-32l0-32 L 32,352 c-17.6,0-32-14.4-32-32l0-288 
	c0-17.601, 14.398-32, 32-32l 448,0 c 17.6,0, 32,14.399, 32,32L 512,320 C 512,337.6, 497.6,352, 480,352z M 192,383.942
	c 0.017,0.020, 0.037,0.041, 0.057,0.058l 127.886,0 c 0.021-0.017, 0.041-0.038, 0.059-0.058L 320.002,352 L 192,352 L 192,383.942 z M 480,224l-64,0 l0-48 
	c0-8.801-7.2-16-16-16l-32,0 c-8.802,0-16,7.199-16,16l0,48 L 160,224 l0-48 c0-8.801-7.2-16-16-16l-32,0 c-8.801,0-16,7.199-16,16l0,48 L 32,224 l0,32 l 448,0 
	L 480,224 z"  />
<glyph unicode="&#xe001;" d="M 512,64L 512,448 L0,448 l0-384 l 224,0 l0-32 l-96,0 l0-32 l 256,0 l0,32 l-96,0 l0,32 L 512,64 z M 64,384l 384,0 l0-256 L 64,128 L 64,384 z"  />
<glyph unicode="&#xe003;" d="M 426.672,480L 85.342,480 C 38.406,480,0,441.593,0,394.656l0-341.313 C0,6.374, 38.406-32, 85.342-32l 341.33,0.001
	c 46.938,0, 85.328,38.373, 85.328,85.344L 512,394.656 C 512,441.593, 473.609,480, 426.672,480z M 435.296,224L 352,224 l0-224 l-96,0 L 256,224 l-46.263,0 l0,73.282 L 256,297.282 
	l0,47.593 C 256,409.546, 283.896,448, 359.935,448l 87.622,0 l0-79.285 l-71.565,0 c-21.241,0.035-23.876-11.076-23.876-31.756L 352,297.282l 96,0 
	L 435.296,224z"  />
<glyph unicode="&#xe004;" d="M 426.69,480L 85.344,480 C 38.405,480, 0.001,441.593, 0.001,394.657l0-341.313 C 0.001,6.375, 38.405-32, 85.344-32L 426.69-32 
	C 473.625-32, 512,6.375, 512,53.344L 512,394.658 C 511.996,441.593, 473.621,480, 426.69,480z M 365.858,67.656
	c-15.076-7.094-28.764-12.094-41-14.969c-12.248-2.845-25.48-4.279-39.701-4.279c-16.156,0-25.688,2.029-38.094,6.094
	c-12.404,4.094-23,9.936-31.75,17.436c-8.779,7.564-14.843,15.599-18.233,24.097c-3.392,8.502-5.078,20.846-5.078,37.002L 192.002,256.938 
	l-47.998,0 l0,50.033 c 13.872,4.5, 29.968,10.967, 39.842,19.375c 9.92,8.436, 17.859,18.529, 23.842,30.342
	c 6.002,11.783, 10.125,26.813, 12.376,45.033l 50.25,0 L 270.314,320 L 352,320 l0-63.063 l-81.689,0 l0-90.594 c0-20.5-0.264-32.313, 1.908-38.125
	c 2.156-5.78, 7.563-11.78, 13.451-15.25c 7.828-4.688, 16.752-7.030, 26.813-7.030c 17.893,0, 35.689,5.813, 53.375,17.438L 365.858,67.656 
	L 365.858,67.656z"  />
<glyph unicode="&#xe005;" d="M 160,384A96,96 10980 1 1 352,384A96,96 10980 1 1 160,384zM 384.039,256l-0.078,0 l-17.634,0 l-99.552-202.122L 304,240l-48,48l-48-48l 37.225-186.122L 145.674,256l-17.635,0 l-0.077,0 
		C 64,256, 64,213.007, 64,160l0-160 l 384,0 L 448,160 C 448,213.007, 448,256, 384.039,256z"  />
<glyph unicode="&#xe006;" d="M 256,480C 167.634,480, 96,408.366, 96,320c0-160, 160-352, 160-352s 160,192, 160,352C 416,408.366, 344.365,480, 256,480z M 256,224
	c-53.020,0-96,42.98-96,96s 42.98,96, 96,96s 96-42.98, 96-96S 309.020,224, 256,224z"  />
<glyph unicode="&#xe007;" d="M 336,384L 176,448L0,384l0-384 l 176,64l 160-64l 176,64L 512,448 L 336,384z M 192,407.135l 128-51.2l0-315.069 l-128,51.199L 192,407.135 z M 32,361.586
	l 128,46.545l0-315.9 L 32,45.687L 32,361.586 z M 480,86.414l-128-46.546l0,315.9 l 128,46.545L 480,86.414 z"  />
<glyph unicode="&#xe008;" d="M 544,29.417 C 544,6.667 557.014-13.037 576-22.675 L 576-30.644 C 570.687-31.371 565.264-31.756 559.75-31.756 C 525.746-31.756 495.076-17.492 473.389,5.376 C 460.278,1.885 446.388,0 432,0 C 352.471,0 288,57.308 288,128 C 288,198.692 352.471,256 432,256 C 511.529,256 576,198.692 576,128 C 576,100.326 566.118,74.704 549.322,53.767 C 545.91,46.355 544,38.111 544,29.417 ZM 115.339,369.407 C 82.232,342.508 64,307.915 64,272 C 64,251.851 69.594,232.311 80.626,213.925 C 92.002,194.965 109.117,177.632 130.12,163.799 C 145.298,153.803 155.51,137.825 158.208,119.852 C 159.108,113.86 159.672,107.808 159.893,101.79 C 163.628,104.887 167.268,108.213 170.833,111.778 C 182.91,123.854 199.223,130.523 216.084,130.523 C 218.768,130.523 221.465,130.355 224.162,130.011 C 234.636,128.68 245.334,128.003 255.959,128.001 L 255.959,64.001 C 242.395,64.002 229.082,64.87 216.088,66.522 C 161.099,11.533 95.463,1.672 32,0.224 L 32,13.682 C 66.268,30.471 96,61.052 96,96 C 96,100.877 95.621,105.665 94.918,110.348 C 37.020,148.48 0,206.725 0,272 C 0,386.875 114.615,480 256,480 C 395.229,480 508.496,389.693 511.918,277.24 C 491.37,286.398 468.998,291.951 445.787,293.529 C 440.022,321.563 423.086,347.937 396.661,369.407 C 379,383.756 358.203,395.102 334.847,403.129 C 309.994,411.669 283.467,416 256,416 C 228.534,416 202.006,411.669 177.153,403.129 C 153.797,395.102 133,383.757 115.339,369.407 Z" horiz-adv-x="576"  />
<glyph unicode="&#xe009;" d="M 256,480C 167.634,480, 96,408.366, 96,320c0-160, 160-352, 160-352s 160,192, 160,352C 416,408.366, 344.365,480, 256,480z M 256,222
	c-54.124,0-98,43.876-98,98s 43.876,98, 98,98s 98-43.876, 98-98S 310.124,222, 256,222zM 194,320A62,62 1260 1 1 318,320A62,62 1260 1 1 194,320z"  />
<glyph unicode="&#xe00a;" d="M 512,265.372c0,100.463-29.396,181.969-65.741,182.613c 0.146,0.003, 0.289,0.015, 0.436,0.015l-41.471,0 
	c0,0-97.4-73.168-237.615-101.877c-4.28-22.646-7.015-49.637-7.015-80.751c0-31.114, 2.733-58.104, 7.015-80.75
	c 140.214-28.709, 237.615-101.878, 237.615-101.878l 41.471,0 c-0.146,0-0.289,0.012-0.436,0.016C 482.607,83.404, 512,164.909, 512,265.372
	z M 432.412,110.374c-4.691,0-9.766,4.871-12.373,7.774c-6.315,7.032-12.396,17.98-17.594,31.664
	c-11.628,30.616-18.033,71.655-18.033,115.562c0,43.905, 6.405,84.945, 18.033,115.561c 5.197,13.684, 11.281,24.633, 17.594,31.664
	c 2.607,2.906, 7.682,7.776, 12.373,7.776c 4.69,0, 9.768-4.872, 12.372-7.776c 6.317-7.032, 12.398-17.979, 17.594-31.664
	c 11.629-30.615, 18.034-71.656, 18.034-115.561c0-43.902-6.405-84.944-18.034-115.562c-5.195-13.684-11.281-24.632-17.594-31.664
	C 442.18,115.245, 437.104,110.374, 432.412,110.374z M 125.906,265.372c0,25.975, 1.905,51.215, 5.526,74.547
	c-23.686-3.277-44.471-5.162-70.17-5.162c-33.529,0-33.529,0-33.529,0L0,287.414l0-44.085 l 27.73-47.343c0,0,0,0, 33.53,0
	c 25.699,0, 46.484-1.887, 70.17-5.162C 127.812,214.156, 125.906,239.397, 125.906,265.372z M 184.075,158.914l-63.999,12.255
	l 40.921-160.772c 2.118-8.317, 10.372-12.519, 18.343-9.327l 59.278,23.726c 7.972,3.188, 11.164,11.982, 7.098,19.542L 184.075,158.914zM 432.412,205.635c-1.809,0-3.764,1.877-4.769,2.996c-2.435,2.71-4.778,6.93-6.781,12.204
	c-4.481,11.8-6.95,27.617-6.95,44.539c0,16.922, 2.469,32.739, 6.95,44.539c 2.003,5.274, 4.348,9.494, 6.781,12.204
	c 1.005,1.12, 2.96,2.997, 4.769,2.997c 1.808,0, 3.765-1.878, 4.769-2.997c 2.435-2.71, 4.778-6.929, 6.78-12.204
	c 4.482-11.799, 6.951-27.617, 6.951-44.539c0-16.921-2.469-32.739-6.951-44.539c-2.002-5.274-4.348-9.494-6.78-12.204
	C 436.177,207.512, 434.221,205.635, 432.412,205.635z"  />
<glyph unicode="&#xe00b;" d="M 352,480c-88.365,0-160-71.634-160-160c0-10.013, 0.929-19.808, 2.688-29.312L0,96l0-96 c0-17.673, 14.327-32, 32-32
	l 32,0 l0,32 l 64,0 l0,64 l 64,0 l0,64 l 64,0 l 41.521,41.521C 314.526,163.363, 332.869,160, 352,160c 88.365,0, 160,71.634, 160,160S 440.365,480, 352,480z
	 M 399.937,319.937c-26.51,0-48,21.49-48,48s 21.49,48, 48,48s 48-21.49, 48-48S 426.447,319.937, 399.937,319.937z"  />
<glyph unicode="&#xe00c;" d="M 256,448L0,192l 48-48l 48,48l 32-192l 96,0 l0,96 l 64,0 l0-96 l 96,0 l 32,192l 48-48l 48,48L 256,448z M 256,242.746
		c-24.994,0-45.256,20.26-45.256,45.254s 20.262,45.255, 45.256,45.255c 24.992,0, 45.255-20.262, 45.255-45.255
		C 301.255,263.006, 280.992,242.746, 256,242.746z"  />
<glyph unicode="&#x20;" horiz-adv-x="256" />
</font></defs></svg>